<?xml version="1.0" encoding="UTF-8"?>
<svg width="180px" height="39px" viewBox="0 0 180 39" version="1.1" xmlns="http://www.w3.org/2000/svg" xmlns:xlink="http://www.w3.org/1999/xlink">
    <!-- Generator: Sketch 50.2 (55047) - http://www.bohemiancoding.com/sketch -->
    <title>Group 8</title>
    <desc>Created with Sketch.</desc>
    <defs></defs>
    <g id="visual-design" stroke="none" stroke-width="1" fill="none" fill-rule="evenodd">
        <g id="1-index-copy-2" transform="translate(-179.000000, -26.000000)">
            <g id="Group-8" transform="translate(179.000000, 26.000000)">
                <path d="M65.375,29 L65.375,26.35 L65.275,26.35 C64.925,28.025 63.225,29.3 60.575,29.3 C56.425,29.3 53.375,26.125 53.375,20.275 C53.375,14.45 56.425,11.25 61,11.25 C64.125,11.25 66.3,12.725 67.5,15.175 L65.2,16.525 C64.525,14.9 63.125,13.775 61,13.775 C58.25,13.775 56.4,15.65 56.4,18.85 L56.4,21.7 C56.4,24.9 58.25,26.775 61,26.775 C63.2,26.775 65.125,25.65 65.125,23.475 L65.125,22.125 L61.525,22.125 L61.525,19.7 L67.85,19.7 L67.85,29 L65.375,29 Z M76.9527778,29.3 C73.3277778,29.3 70.9777778,26.65 70.9777778,22.5 C70.9777778,18.35 73.3277778,15.7 76.9527778,15.7 C80.5777778,15.7 82.9277778,18.35 82.9277778,22.5 C82.9277778,26.65 80.5777778,29.3 76.9527778,29.3 Z M76.9527778,27.05 C78.8027778,27.05 80.0527778,25.9 80.0527778,23.6 L80.0527778,21.4 C80.0527778,19.1 78.8027778,17.95 76.9527778,17.95 C75.1027778,17.95 73.8527778,19.1 73.8527778,21.4 L73.8527778,23.6 C73.8527778,25.9 75.1027778,27.05 76.9527778,27.05 Z M92.0555556,29 L88.8555556,29 L84.4305556,16 L87.1305556,16 L89.1055556,21.925 L90.4305556,26.475 L90.5805556,26.475 L91.9055556,21.925 L93.9305556,16 L96.5305556,16 L92.0555556,29 Z M102.133333,29 L99.3083334,29 L99.3083334,11.55 L106.808333,11.55 C110.008333,11.55 111.883333,13.625 111.883333,16.8 C111.883333,19.975 110.008333,22.05 106.808333,22.05 L102.133333,22.05 L102.133333,29 Z M102.133333,14.025 L102.133333,19.575 L106.633333,19.575 C108.058333,19.575 108.908333,18.8 108.908333,17.4 L108.908333,16.2 C108.908333,14.8 108.058333,14.025 106.633333,14.025 L102.133333,14.025 Z M117.536111,29 L114.811111,29 L114.811111,16 L117.536111,16 L117.536111,18.5 L117.661111,18.5 C118.036111,17.175 119.161111,16 121.236111,16 L121.961111,16 L121.961111,18.625 L120.886111,18.625 C118.736111,18.625 117.536111,19.35 117.536111,20.7 L117.536111,29 Z M129.638889,29.3 C125.938889,29.3 123.663889,26.65 123.663889,22.5 C123.663889,18.35 125.938889,15.7 129.638889,15.7 C133.463889,15.7 135.413889,18.575 135.413889,22.175 L135.413889,23.2 L126.488889,23.2 L126.488889,23.625 C126.488889,25.625 127.713889,27.05 129.913889,27.05 C131.513889,27.05 132.588889,26.3 133.338889,25.1 L134.938889,26.675 C133.963889,28.25 132.063889,29.3 129.638889,29.3 Z M129.638889,17.825 C127.763889,17.825 126.488889,19.225 126.488889,21.225 L126.488889,21.4 L132.538889,21.4 L132.538889,21.15 C132.538889,19.15 131.438889,17.825 129.638889,17.825 Z M146.891667,29 L146.891667,26.85 L146.766667,26.85 C146.216667,28.375 144.841667,29.3 143.116667,29.3 C139.841667,29.3 137.941667,26.775 137.941667,22.5 C137.941667,18.225 139.841667,15.7 143.116667,15.7 C144.841667,15.7 146.216667,16.6 146.766667,18.15 L146.891667,18.15 L146.891667,10.5 L149.616667,10.5 L149.616667,29 L146.891667,29 Z M143.941667,26.95 C145.591667,26.95 146.891667,26.05 146.891667,24.725 L146.891667,20.275 C146.891667,18.95 145.591667,18.05 143.941667,18.05 C142.066667,18.05 140.816667,19.375 140.816667,21.375 L140.816667,23.625 C140.816667,25.625 142.066667,26.95 143.941667,26.95 Z M155.169445,13.675 C154.044445,13.675 153.544445,13.075 153.544445,12.25 L153.544445,11.825 C153.544445,11 154.044445,10.4 155.169445,10.4 C156.294445,10.4 156.769445,11 156.769445,11.825 L156.769445,12.25 C156.769445,13.075 156.294445,13.675 155.169445,13.675 Z M153.794445,29 L153.794445,16 L156.519445,16 L156.519445,29 L153.794445,29 Z M165.722222,29.3 C161.972222,29.3 159.822222,26.65 159.822222,22.5 C159.822222,18.35 161.972222,15.7 165.722222,15.7 C168.322222,15.7 169.972222,16.975 170.747222,18.9 L168.497222,19.95 C168.122222,18.75 167.197222,17.975 165.722222,17.975 C163.722222,17.975 162.697222,19.35 162.697222,21.35 L162.697222,23.675 C162.697222,25.675 163.722222,27.05 165.722222,27.05 C167.297222,27.05 168.222222,26.2 168.772222,24.9 L170.847222,26 C169.997222,28.125 168.222222,29.3 165.722222,29.3 Z M179.7,29 L177.325,29 C175.45,29 174.45,27.95 174.45,26.175 L174.45,18.225 L172.425,18.225 L172.425,16 L173.525,16 C174.425,16 174.725,15.625 174.725,14.725 L174.725,12.45 L177.175,12.45 L177.175,16 L179.9,16 L179.9,18.225 L177.175,18.225 L177.175,26.775 L179.7,26.775 L179.7,29 Z" id="GovPredict" fill="#0366D6"></path>
                <g id="Group-7">
                    <rect id="Rectangle-4-Copy" stroke="#0366D6" stroke-width="2" x="1" y="1" width="37" height="37" rx="5"></rect>
                    <path d="M19.52,15.596 L16.972,15.596 L16.972,13.272 C16.972,12.9359983 16.9160006,12.7166672 16.804,12.614 C16.6919994,12.5113328 16.4680017,12.46 16.132,12.46 L14.704,12.46 C14.3679983,12.46 14.1440006,12.5113328 14.032,12.614 C13.9199994,12.7166672 13.864,12.9359983 13.864,13.272 L13.864,25.228 C13.864,25.5640017 13.9199994,25.7833328 14.032,25.886 C14.1440006,25.9886672 14.3679983,26.04 14.704,26.04 L16.132,26.04 C16.4680017,26.04 16.6919994,25.9886672 16.804,25.886 C16.9160006,25.7833328 16.972,25.5640017 16.972,25.228 L16.972,20.944 L15.572,20.944 L15.572,18.984 L19.52,18.984 L19.52,25.536 C19.52,27.1973416 18.6520087,28.028 16.916,28.028 L13.92,28.028 C12.1839913,28.028 11.316,27.1973416 11.316,25.536 L11.316,12.936 C11.316,11.2933251 12.1839913,10.472 13.92,10.472 L16.916,10.472 C18.6520087,10.472 19.52,11.2933251 19.52,12.936 L19.52,15.596 Z M21.4519998,10.472 L27.1919998,10.472 C28.9280085,10.472 29.7959998,11.2933251 29.7959998,12.936 L29.7959998,18.76 C29.7959998,20.4026749 28.9280085,21.224 27.1919998,21.224 L23.9719998,21.224 L23.9719998,28 L21.4519998,28 L21.4519998,10.472 Z M27.2759998,18.368 L27.2759998,13.328 C27.2759998,12.9919983 27.2200004,12.7726672 27.1079998,12.67 C26.9959992,12.5673328 26.7720015,12.516 26.4359998,12.516 L23.9719998,12.516 L23.9719998,19.208 L26.4359998,19.208 C26.7720015,19.208 26.9959992,19.1520006 27.1079998,19.04 C27.2200004,18.9279994 27.2759998,18.7040017 27.2759998,18.368 Z" id="GP-Copy" fill="#0366D6"></path>
                </g>
            </g>
        </g>
    </g>
</svg>